<svg xmlns="http://www.w3.org/2000/svg" width="75" height="60" viewBox="0 0 75 60">
  <path id="church-solid" d="M54.429,28.908,41.25,21V15h5.625a1.874,1.874,0,0,0,1.875-1.875V9.375A1.874,1.874,0,0,0,46.875,7.5H41.25V1.875A1.874,1.874,0,0,0,39.375,0h-3.75A1.874,1.874,0,0,0,33.75,1.875V7.5H28.125A1.874,1.874,0,0,0,26.25,9.375v3.75A1.874,1.874,0,0,0,28.125,15H33.75v6L20.571,28.908a3.75,3.75,0,0,0-1.821,3.216V60H30V48.75a7.5,7.5,0,1,1,15,0V60H56.25V32.123A3.75,3.75,0,0,0,54.429,28.908ZM0,46.4V58.125A1.874,1.874,0,0,0,1.875,60H15V37.5L2.272,42.954A3.753,3.753,0,0,0,0,46.4Zm72.728-3.448L60,37.5V60H73.125A1.874,1.874,0,0,0,75,58.125V46.4A3.753,3.753,0,0,0,72.728,42.954Z" fill="#b39e7a"/>
</svg>
