<svg xmlns="http://www.w3.org/2000/svg" width="45" height="60" viewBox="0 0 45 60">
  <path id="cross-solid" d="M41.25,15H30V3.75A3.75,3.75,0,0,0,26.25,0h-7.5A3.75,3.75,0,0,0,15,3.75V15H3.75A3.75,3.75,0,0,0,0,18.75v7.5A3.75,3.75,0,0,0,3.75,30H15V56.25A3.75,3.75,0,0,0,18.75,60h7.5A3.75,3.75,0,0,0,30,56.25V30H41.25A3.75,3.75,0,0,0,45,26.25v-7.5A3.75,3.75,0,0,0,41.25,15Z" fill="#fff"/>
</svg>
